rbcb 0.1.3
…
---

# Para listar todas as moedas disponíveis

```r
rbcb::list_currencies()
```

```
## Warning in as.POSIXlt.POSIXct(Sys.time()): unknown timezone 'zone/tz/2018c.
## 1.0/zoneinfo/America/Sao_Paulo'
```

```
## # A tibble: 218 x 5
##    name                    code symbol country_name          country_code
##  * <chr>                  <dbl> <chr>  <chr>                        <dbl>
##  1 AFEGANE AFEGANIST       5.00 AFN    AFEGANISTAO                    132
##  2 RANDE/AFRICA SUL      785    ZAR    AFRICA DO SUL                 7560
##  3 LEK ALBANIA REP       490    ALL    ALBANIA, REPUBLICA DA          175
##  4 EURO                  978    EUR    ALEMANHA                       230
##  5 KWANZA/ANGOLA         635    AOA    ANGOLA                         400
##  6 DOLAR CARIBE ORIENTAL 215    XCD    ANGUILLA                       418
##  7 DOLAR CARIBE ORIENTAL 215    XCD    ANTIGUA E BARBUDA              434
##  8 RIAL/ARAB SAUDITA     820    SAR    ARABIA SAUDITA                 531
##  9 DINAR ARGELINO         95.0  DZD    ARGELIA                        590
## 10 PESO ARGENTINO        706    ARS    ARGENTINA                      639
## # ... with 208 more rows
```
…
