rbcb
…
---

# Para listar todas as moedas disponíveis

```r
rbcb::list_currencies()
```

```
## Warning in as.POSIXlt.POSIXct(Sys.time()): unknown timezone 'zone/tz/2017c.
## 1.0/zoneinfo/America/Sao_Paulo'
```

```
## # A tibble: 216 x 5
##                           name  code symbol          country_name
##  *                       <chr> <dbl>  <chr>                 <chr>
##  1           AFEGANE AFEGANIST     5    AFN           AFEGANISTAO
##  2            RANDE/AFRICA SUL   785    ZAR         AFRICA DO SUL
##  3             LEK ALBANIA REP   490    ALL ALBANIA, REPUBLICA DA
##  4                        EURO   978    EUR              ALEMANHA
##  5               KWANZA/ANGOLA   635    AOA                ANGOLA
##  6       DOLAR CARIBE ORIENTAL   215    XCD              ANGUILLA
##  7       DOLAR CARIBE ORIENTAL   215    XCD     ANTIGUA E BARBUDA
##  8 GUILDER ANTILHAS HOLANDESAS   325    ANG   ANTILHAS HOLANDESAS
##  9           RIAL/ARAB SAUDITA   820    SAR        ARABIA SAUDITA
## 10              DINAR ARGELINO    95    DZD               ARGELIA
## # ... with 206 more rows, and 1 more variables: country_code <dbl>
```
…
